<?xml version="1.0" encoding="UTF-8" standalone="no"?>
<!-- Created with Inkscape (http://www.inkscape.org/) -->

<svg
   xmlns:dc="http://purl.org/dc/elements/1.1/"
   xmlns:cc="http://creativecommons.org/ns#"
   xmlns:rdf="http://www.w3.org/1999/02/22-rdf-syntax-ns#"
   xmlns:svg="http://www.w3.org/2000/svg"
   xmlns="http://www.w3.org/2000/svg"
   xmlns:sodipodi="http://sodipodi.sourceforge.net/DTD/sodipodi-0.dtd"
   xmlns:inkscape="http://www.inkscape.org/namespaces/inkscape"
   width="10cm"
   height="4cm"
   viewBox="0 0 354.33071 141.73227"
   id="svg2"
   version="1.1"
   inkscape:version="0.91 r13725"
   sodipodi:docname="firefox-module2.svg"
   inkscape:export-filename="/media/h4ck3r/GrosDisque/Fichiersdetravail/Projets_Libres/LIVRESENCOURS/manueldumo/images/firefox-module2NEW.png"
   inkscape:export-xdpi="300"
   inkscape:export-ydpi="300">
  <defs
     id="defs4" />
  <sodipodi:namedview
     id="base"
     pagecolor="#ffffff"
     bordercolor="#666666"
     borderopacity="1.0"
     inkscape:pageopacity="0.0"
     inkscape:pageshadow="2"
     inkscape:zoom="1.4"
     inkscape:cx="-49.811167"
     inkscape:cy="184.23717"
     inkscape:document-units="px"
     inkscape:current-layer="layer1"
     showgrid="false"
     units="cm"
     inkscape:window-width="1920"
     inkscape:window-height="1026"
     inkscape:window-x="0"
     inkscape:window-y="0"
     inkscape:window-maximized="1"
     fit-margin-top="0.1"
     fit-margin-left="0.1"
     fit-margin-bottom="0.1"
     fit-margin-right="0.1"
     borderlayer="true" />
  <metadata
     id="metadata7">
    <rdf:RDF>
      <cc:Work
         rdf:about="">
        <dc:format>image/svg+xml</dc:format>
        <dc:type
           rdf:resource="http://purl.org/dc/dcmitype/StillImage" />
        <dc:title></dc:title>
      </cc:Work>
    </rdf:RDF>
  </metadata>
  <g
     inkscape:label="Calque 1"
     inkscape:groupmode="layer"
     id="layer1"
     transform="translate(-2.3897126,-910.90618)">
    <rect
       style="opacity:1;fill:#ffffff;fill-opacity:1;stroke:none;stroke-width:1.5;stroke-linejoin:round;stroke-miterlimit:4;stroke-dasharray:none;stroke-dashoffset:0;stroke-opacity:1"
       id="rect4202"
       width="380.71429"
       height="179.28571"
       x="-6.8960013"
       y="899.06702" />
    <rect
       style="opacity:1;fill:#ffffff;fill-opacity:1;stroke:#000000;stroke-width:1.79815888;stroke-linejoin:round;stroke-miterlimit:4;stroke-dasharray:none;stroke-dashoffset:0;stroke-opacity:1"
       id="rect4136"
       width="346.32889"
       height="160.6077"
       x="446.12634"
       y="995.64722"
       ry="8.4530382" />
    <g
       id="g4189"
       transform="matrix(0.61950081,-0.63030542,0.63393757,0.61595138,556.89122,834.96723)">
      <path
         id="rect4148-3"
         d="m 37.079917,306.64048 c -0.95342,0 -1.72193,0.76699 -1.72193,1.72041 l 0,4.42652 -4.37632,0 c -0.95343,0 -1.72042,0.76699 -1.72042,1.72041 0,0.95342 0.76699,1.72041 1.72042,1.72041 l 4.37632,0 0,4.62275 c 0,0.95341 0.76851,1.72041 1.72193,1.72041 0.95341,0 1.72041,-0.767 1.72041,-1.72041 l 0,-4.62275 4.67142,0 c 0.95342,0 1.72041,-0.76699 1.72041,-1.72041 0,-0.95342 -0.76699,-1.72041 -1.72041,-1.72041 l -4.67142,0 0,-4.42652 c 0,-0.95342 -0.767,-1.72041 -1.72041,-1.72041 z"
         style="opacity:1;fill:#000000;fill-opacity:1;stroke:none;stroke-width:3.54330707;stroke-linejoin:round;stroke-miterlimit:4;stroke-dasharray:none;stroke-dashoffset:0;stroke-opacity:1"
         inkscape:connector-curvature="0" />
      <rect
         style="opacity:1;fill:#000000;fill-opacity:1;stroke:none;stroke-width:3.54330707;stroke-linejoin:round;stroke-miterlimit:4;stroke-dasharray:none;stroke-dashoffset:0;stroke-opacity:1"
         id="rect4192"
         width="13.768497"
         height="3.0596659"
         x="227.25305"
         y="196.33365"
         transform="matrix(0.69891616,0.71520361,-0.71520361,0.69891616,0,0)"
         ry="1.529833" />
      <flowRoot
         xml:space="preserve"
         id="flowRoot4194"
         style="font-style:normal;font-weight:normal;font-size:40px;line-height:125%;font-family:sans-serif;letter-spacing:0px;word-spacing:0px;fill:#000000;fill-opacity:1;stroke:none;stroke-width:1px;stroke-linecap:butt;stroke-linejoin:miter;stroke-opacity:1"
         transform="matrix(0.69891616,0.71520361,-0.71520361,0.69891616,118.99393,338.67144)"><flowRegion
           id="flowRegion4196"><rect
             id="rect4198"
             width="145.46196"
             height="150.00766"
             x="43.941635"
             y="98.140587" /></flowRegion><flowPara
           id="flowPara4200" /></flowRoot>      <text
         xml:space="preserve"
         style="font-style:normal;font-weight:normal;font-size:40px;line-height:125%;font-family:sans-serif;letter-spacing:0px;word-spacing:0px;fill:#000000;fill-opacity:1;stroke:none;stroke-width:1px;stroke-linecap:butt;stroke-linejoin:miter;stroke-opacity:1"
         x="252.14975"
         y="141.14725"
         id="text4218"
         sodipodi:linespacing="125%"
         transform="matrix(0.69891616,0.71520361,-0.71520361,0.69891616,0,0)"><tspan
           sodipodi:role="line"
           id="tspan4220"
           x="252.14975"
           y="141.14725" /></text>
    </g>
    <text
       xml:space="preserve"
       style="font-style:normal;font-weight:normal;font-size:11.27164936px;line-height:125%;font-family:sans-serif;letter-spacing:0px;word-spacing:0px;fill:#000000;fill-opacity:1;stroke:none;stroke-width:1px;stroke-linecap:butt;stroke-linejoin:miter;stroke-opacity:1"
       x="608.28491"
       y="1007.309"
       id="text4620"
       sodipodi:linespacing="125%"><tspan
         sodipodi:role="line"
         id="tspan4622"
         x="608.28491"
         y="1007.309"
         style="font-style:italic;font-variant:normal;font-weight:normal;font-stretch:normal;font-family:sans-serif;-inkscape-font-specification:'sans-serif Italic'">Firefox</tspan></text>
    <circle
       style="opacity:1;fill:#b3b3b3;fill-opacity:1;stroke:none;stroke-width:1.5;stroke-linejoin:round;stroke-miterlimit:4;stroke-dasharray:none;stroke-dashoffset:0;stroke-opacity:1"
       id="path4626"
       cx="457.0961"
       cy="1021.3828"
       r="8.0744638" />
    <text
       xml:space="preserve"
       style="font-style:normal;font-weight:normal;font-size:18.77405167px;line-height:125%;font-family:sans-serif;letter-spacing:0px;word-spacing:0px;fill:#000000;fill-opacity:1;stroke:none;stroke-width:1px;stroke-linecap:butt;stroke-linejoin:miter;stroke-opacity:1"
       x="521.7536"
       y="887.45538"
       id="text4628"
       sodipodi:linespacing="125%"
       transform="scale(0.86334276,1.1582885)"><tspan
         sodipodi:role="line"
         id="tspan4630"
         x="521.7536"
         y="887.45538">←</tspan></text>
    <rect
       style="opacity:1;fill:#b3b3b3;fill-opacity:1;stroke:#000000;stroke-width:0.94038957;stroke-linejoin:round;stroke-miterlimit:4;stroke-dasharray:none;stroke-dashoffset:0;stroke-opacity:1"
       id="rect4652"
       width="199.72081"
       height="14.77755"
       x="485.64114"
       y="1013.9485"
       ry="0.60639453" />
    <text
       xml:space="preserve"
       style="font-style:normal;font-weight:normal;font-size:11.41806126px;line-height:125%;font-family:sans-serif;letter-spacing:0px;word-spacing:0px;fill:#000000;fill-opacity:1;stroke:none;stroke-width:1px;stroke-linecap:butt;stroke-linejoin:miter;stroke-opacity:1"
       x="300.78262"
       y="1667.8278"
       id="text4632"
       sodipodi:linespacing="125%"
       transform="scale(1.6283157,0.61413153)"><tspan
         sodipodi:role="line"
         id="tspan4634"
         x="300.78262"
         y="1667.8278">i</tspan></text>
    <circle
       style="opacity:1;fill:none;fill-opacity:1;stroke:#000000;stroke-width:0.60322863;stroke-linejoin:round;stroke-miterlimit:4;stroke-dasharray:none;stroke-dashoffset:0;stroke-opacity:1"
       id="path4636"
       cx="492.345"
       cy="1021.6623"
       r="3.7881327" />
    <rect
       style="opacity:1;fill:none;fill-opacity:1;stroke:#000000;stroke-width:0.83208144;stroke-linejoin:round;stroke-miterlimit:4;stroke-dasharray:none;stroke-dashoffset:0;stroke-opacity:1"
       id="rect4638"
       width="4.2545509"
       height="4.7746563"
       x="499.79572"
       y="1018.4952"
       ry="2.3873281" />
    <rect
       style="opacity:1;fill:#000000;fill-opacity:1;stroke:none;stroke-width:1.5;stroke-linejoin:round;stroke-miterlimit:4;stroke-dasharray:none;stroke-dashoffset:0;stroke-opacity:1"
       id="rect4640"
       width="6.2412667"
       height="4.9410024"
       x="498.77637"
       y="1020.7524"
       ry="0" />
    <text
       xml:space="preserve"
       style="font-style:normal;font-weight:normal;font-size:10.73284912px;line-height:125%;font-family:sans-serif;letter-spacing:0px;word-spacing:0px;fill:#000000;fill-opacity:1;stroke:none;stroke-width:1px;stroke-linecap:butt;stroke-linejoin:miter;stroke-opacity:1"
       x="520.43951"
       y="1024.5564"
       id="text4642"
       sodipodi:linespacing="125%"><tspan
         sodipodi:role="line"
         id="tspan4644"
         x="520.43951"
         y="1024.5564">https://addons.mozilla.org</tspan></text>
    <rect
       style="opacity:1;fill:#b3b3b3;fill-opacity:1;stroke:#000000;stroke-width:0.94038957;stroke-linejoin:round;stroke-miterlimit:4;stroke-dasharray:none;stroke-dashoffset:0;stroke-opacity:1"
       id="rect4652-3"
       width="68.896164"
       height="14.60548"
       x="688.05304"
       y="1014.1669"
       ry="0.59933347" />
    <circle
       style="opacity:1;fill:none;fill-opacity:1;stroke:#000000;stroke-width:1.20657098;stroke-linejoin:round;stroke-miterlimit:4;stroke-dasharray:none;stroke-dashoffset:0;stroke-opacity:1"
       id="path4648"
       cx="694.15405"
       cy="1019.917"
       r="3.0941494" />
    <rect
       style="opacity:1;fill:#000000;fill-opacity:1;stroke:none;stroke-width:1.43700004;stroke-linejoin:round;stroke-miterlimit:4;stroke-dasharray:none;stroke-dashoffset:0;stroke-opacity:1"
       id="rect4650"
       width="6.6944103"
       height="1.6242946"
       x="1159.3295"
       y="428.76154"
       ry="0.81214732"
       transform="matrix(0.81513972,0.5792644,-0.5792644,0.81513972,0,0)" />
    <path
       sodipodi:type="star"
       style="opacity:1;fill:#000000;fill-opacity:1;stroke:none;stroke-width:1.5;stroke-linejoin:round;stroke-miterlimit:4;stroke-dasharray:none;stroke-dashoffset:0;stroke-opacity:1"
       id="path4646"
       sodipodi:sides="5"
       sodipodi:cx="676.62201"
       sodipodi:cy="1021.5163"
       sodipodi:r1="5.3705859"
       sodipodi:r2="2.6852932"
       sodipodi:arg1="1.3633001"
       sodipodi:arg2="1.9916186"
       inkscape:flatsided="false"
       inkscape:rounded="0"
       inkscape:randomized="0"
       d="m 677.72841,1026.7717 -2.20337,-2.8044 -3.5593,0.2252 1.98624,-2.9621 -1.3141,-3.3155 3.43093,0.9737 2.74714,-2.2743 0.1342,3.5639 3.01192,1.9099 -3.34799,1.2289 z"
       inkscape:transform-center-x="-0.34187047"
       inkscape:transform-center-y="0.17664562" />
    <rect
       style="opacity:1;fill:#b3b3b3;fill-opacity:1;stroke:#000000;stroke-width:0.94038957;stroke-linejoin:round;stroke-miterlimit:4;stroke-dasharray:none;stroke-dashoffset:0;stroke-opacity:1"
       id="rect4669"
       width="1.4553648"
       height="14.553648"
       x="666.5542"
       y="1014.1724"
       ry="0.72768241" />
    <circle
       style="opacity:1;fill:#b3b3b3;fill-opacity:1;stroke:none;stroke-width:1.5;stroke-linejoin:round;stroke-miterlimit:4;stroke-dasharray:none;stroke-dashoffset:0;stroke-opacity:1"
       id="path4626-6"
       cx="-475.14493"
       cy="1021.5411"
       r="8.0744638"
       transform="scale(-1,1)" />
    <text
       xml:space="preserve"
       style="font-style:normal;font-weight:normal;font-size:18.77405167px;line-height:125%;font-family:sans-serif;letter-spacing:0px;word-spacing:0px;fill:#000000;fill-opacity:1;stroke:none;stroke-width:1px;stroke-linecap:butt;stroke-linejoin:miter;stroke-opacity:1"
       x="-558.05048"
       y="887.59204"
       id="text4628-7"
       sodipodi:linespacing="125%"
       transform="scale(-0.86334276,1.1582885)"><tspan
         sodipodi:role="line"
         id="tspan4630-5"
         x="-558.05048"
         y="887.59204">←</tspan></text>
    <g
       id="g4873-5"
       transform="matrix(0.12796657,0,0,0.12796657,540.75017,892.39077)"
       style="fill:#000000">
      <path
         style="opacity:1;fill:#000000;fill-opacity:1;stroke:none;stroke-width:1.5;stroke-linejoin:round;stroke-miterlimit:4;stroke-dasharray:none;stroke-dashoffset:0;stroke-opacity:1"
         d="m -254.93008,1043.5505 c -3.9442,-1.0976 -5.1687,-4.6277 -4.8431,-13.9621 0.2216,-6.3546 0.7126,-8.7205 2.0965,-10.1015 1.7349,-1.7313 2.0177,-1.6909 7.0711,1.012 l 5.2639,2.8155 2.2656,-2.6109 c 3.0624,-3.529 3.7439,-6.8475 2.1089,-10.2692 -1.6829,-3.522 -5.2003,-4.1882 -9.6006,-1.8184 -4.003,2.1557 -7.9407,1.3573 -8.7815,-1.7806 -1.2538,-4.679 -0.6644,-11.6259 1.1797,-13.90319 1.4703,-1.81585 3.3332,-2.39494 9.7135,-3.01965 4.6193,-0.45229 8.2298,-1.31594 8.7032,-2.08185 0.4647,-0.75191 -0.04,-3.46237 -1.1857,-6.36944 -1.9538,-4.9566 -1.9558,-5.11267 -0.1,-7.59827 1.042,-1.39575 3.1188,-2.86512 4.6151,-3.26528 3.8249,-1.02293 9.5011,0.78509 11.3569,3.61751 1.4411,2.19932 1.3993,2.76416 -0.5146,6.96553 -1.1456,2.51467 -2.0828,5.03564 -2.0828,5.60216 0,1.81202 3.3439,2.84827 10.8443,3.36053 4.0199,0.27455 7.948,1.02956 8.7291,1.67781 0.7811,0.64825 1.7227,3.32319 2.0926,5.94431 0.3698,2.62113 0.9044,5.56113 1.188,6.53343 0.6216,2.1312 3.9659,2.2446 7.4505,0.2526 6.0938,-3.4836 10.1016,-0.3886 10.1016,7.8009 0,7.9537 -5.4238,11.2955 -11.1117,6.8463 -5.2612,-4.1154 -6.5395,-2.2381 -7.4302,10.9119 -0.3501,5.1683 -1.0999,10.2626 -1.6662,11.3208 -2.0803,3.8871 -13.0573,3.6831 -15.5471,-0.2889 -0.858,-1.3689 -0.7075,-2.4932 0.6524,-4.8725 0.9722,-1.7011 1.7677,-4.3493 1.7677,-5.885 0,-6.9612 -11.8125,-9.3456 -15.1748,-3.0631 -0.9506,1.7762 -0.6966,3.0836 1.4317,7.372 l 2.5872,5.2129 -2.1941,1.6674 c -3.5184,2.6736 -14.6984,3.7265 -20.9871,1.9763 z"
         id="path4906-7"
         inkscape:connector-curvature="0" />
    </g>
    <path
       style="fill:#cccccc;fill-rule:evenodd;stroke:#000000;stroke-width:1.56135511px;stroke-linecap:butt;stroke-linejoin:miter;stroke-opacity:1"
       d="m 511.54997,1027.076 -5.236,6.4822 -43.17249,0 0,106.708 236.14543,0 0.42399,-106.7064 -183.16536,0 z"
       id="path4945"
       inkscape:connector-curvature="0"
       sodipodi:nodetypes="cccccccc" />
    <text
       xml:space="preserve"
       style="font-style:normal;font-weight:normal;font-size:10.34784603px;line-height:125%;font-family:sans-serif;letter-spacing:0px;word-spacing:0px;fill:#000000;fill-opacity:1;stroke:none;stroke-width:1px;stroke-linecap:butt;stroke-linejoin:miter;stroke-opacity:1"
       x="522.1969"
       y="1055.2688"
       id="text4947"
       sodipodi:linespacing="125%"><tspan
         sodipodi:role="line"
         id="tspan4949"
         x="522.1969"
         y="1055.2688"
         style="font-style:normal;font-variant:normal;font-weight:bold;font-stretch:normal;font-family:sans-serif;-inkscape-font-specification:'sans-serif Bold'">addons.mozilla.org</tspan></text>
    <g
       id="g4873"
       transform="matrix(0.66368115,0,0,0.66368115,640.58923,412.84055)"
       style="fill:#000000">
      <path
         style="opacity:1;fill:#000000;fill-opacity:1;stroke:none;stroke-width:1.5;stroke-linejoin:round;stroke-miterlimit:4;stroke-dasharray:none;stroke-dashoffset:0;stroke-opacity:1"
         d="m -254.93008,1043.5505 c -3.9442,-1.0976 -5.1687,-4.6277 -4.8431,-13.9621 0.2216,-6.3546 0.7126,-8.7205 2.0965,-10.1015 1.7349,-1.7313 2.0177,-1.6909 7.0711,1.012 l 5.2639,2.8155 2.2656,-2.6109 c 3.0624,-3.529 3.7439,-6.8475 2.1089,-10.2692 -1.6829,-3.522 -5.2003,-4.1882 -9.6006,-1.8184 -4.003,2.1557 -7.9407,1.3573 -8.7815,-1.7806 -1.2538,-4.679 -0.6644,-11.6259 1.1797,-13.90319 1.4703,-1.81585 3.3332,-2.39494 9.7135,-3.01965 4.6193,-0.45229 8.2298,-1.31594 8.7032,-2.08185 0.4647,-0.75191 -0.04,-3.46237 -1.1857,-6.36944 -1.9538,-4.9566 -1.9558,-5.11267 -0.1,-7.59827 1.042,-1.39575 3.1188,-2.86512 4.6151,-3.26528 3.8249,-1.02293 9.5011,0.78509 11.3569,3.61751 1.4411,2.19932 1.3993,2.76416 -0.5146,6.96553 -1.1456,2.51467 -2.0828,5.03564 -2.0828,5.60216 0,1.81202 3.3439,2.84827 10.8443,3.36053 4.0199,0.27455 7.948,1.02956 8.7291,1.67781 0.7811,0.64825 1.7227,3.32319 2.0926,5.94431 0.3698,2.62113 0.9044,5.56113 1.188,6.53343 0.6216,2.1312 3.9659,2.2446 7.4505,0.2526 6.0938,-3.4836 10.1016,-0.3886 10.1016,7.8009 0,7.9537 -5.4238,11.2955 -11.1117,6.8463 -5.2612,-4.1154 -6.5395,-2.2381 -7.4302,10.9119 -0.3501,5.1683 -1.0999,10.2626 -1.6662,11.3208 -2.0803,3.8871 -13.0573,3.6831 -15.5471,-0.2889 -0.858,-1.3689 -0.7075,-2.4932 0.6524,-4.8725 0.9722,-1.7011 1.7677,-4.3493 1.7677,-5.885 0,-6.9612 -11.8125,-9.3456 -15.1748,-3.0631 -0.9506,1.7762 -0.6966,3.0836 1.4317,7.372 l 2.5872,5.2129 -2.1941,1.6674 c -3.5184,2.6736 -14.6984,3.7265 -20.9871,1.9763 z"
         id="path4906"
         inkscape:connector-curvature="0" />
    </g>
    <text
       xml:space="preserve"
       style="font-style:normal;font-weight:normal;font-size:7.03659534px;line-height:125%;font-family:sans-serif;letter-spacing:0px;word-spacing:0px;fill:#000000;fill-opacity:1;stroke:none;stroke-width:1px;stroke-linecap:butt;stroke-linejoin:miter;stroke-opacity:1"
       x="521.44275"
       y="1067.5454"
       id="text4951"
       sodipodi:linespacing="125%"><tspan
         sodipodi:role="line"
         id="tspan4953"
         x="521.44275"
         y="1067.5454">ce site souhaite installer un module sur Firefox :</tspan></text>
    <text
       xml:space="preserve"
       style="font-style:normal;font-weight:normal;font-size:10.34784603px;line-height:125%;font-family:sans-serif;letter-spacing:0px;word-spacing:0px;fill:#000000;fill-opacity:1;stroke:none;stroke-width:1px;stroke-linecap:butt;stroke-linejoin:miter;stroke-opacity:1"
       x="520.5882"
       y="1085.1591"
       id="text4947-2"
       sodipodi:linespacing="125%"><tspan
         sodipodi:role="line"
         id="tspan4949-5"
         x="520.5882"
         y="1085.1591"
         style="font-style:normal;font-variant:normal;font-weight:bold;font-stretch:normal;font-family:sans-serif;-inkscape-font-specification:'sans-serif Bold'">Grammalecte [fr]</tspan></text>
    <text
       xml:space="preserve"
       style="font-style:normal;font-weight:normal;font-size:7.03659534px;line-height:125%;font-family:sans-serif;letter-spacing:0px;word-spacing:0px;fill:#000000;fill-opacity:1;stroke:none;stroke-width:1px;stroke-linecap:butt;stroke-linejoin:miter;stroke-opacity:1"
       x="521.04944"
       y="1100.2494"
       id="text4951-7"
       sodipodi:linespacing="125%"><tspan
         sodipodi:role="line"
         id="tspan4953-9"
         x="521.04944"
         y="1100.2494">En savoir plus...</tspan></text>
    <text
       xml:space="preserve"
       style="font-style:normal;font-weight:normal;font-size:13.3310585px;line-height:125%;font-family:sans-serif;letter-spacing:0px;word-spacing:0px;fill:#000000;fill-opacity:1;stroke:none;stroke-width:1px;stroke-linecap:butt;stroke-linejoin:miter;stroke-opacity:1"
       x="545.35864"
       y="1124.2534"
       id="text5001"
       sodipodi:linespacing="125%"><tspan
         sodipodi:role="line"
         id="tspan5003"
         x="545.35864"
         y="1124.2534"
         style="font-style:normal;font-variant:normal;font-weight:bold;font-stretch:normal;font-family:sans-serif;-inkscape-font-specification:'sans-serif Bold'">Annuler    Installer</tspan></text>
    <rect
       style="opacity:1;fill:none;fill-opacity:1;stroke:#000000;stroke-width:1.67795336;stroke-linejoin:round;stroke-miterlimit:4;stroke-dasharray:none;stroke-dashoffset:0;stroke-opacity:1"
       id="rect5005"
       width="64.409576"
       height="20.551741"
       x="542.85559"
       y="1109.9196"
       ry="0" />
    <rect
       style="opacity:1;fill:none;fill-opacity:1;stroke:#000000;stroke-width:1.73197949;stroke-linejoin:round;stroke-miterlimit:4;stroke-dasharray:none;stroke-dashoffset:0;stroke-opacity:1"
       id="rect5005-1"
       width="68.804901"
       height="20.497713"
       x="619.47864"
       y="1109.8408"
       ry="0" />
    <rect
       style="opacity:1;fill:#ffffff;fill-opacity:1;stroke:#000000;stroke-width:1.57961726;stroke-linejoin:round;stroke-miterlimit:4;stroke-dasharray:none;stroke-dashoffset:0;stroke-opacity:1"
       id="rect5305"
       width="349.93823"
       height="125.1793"
       x="5.45998"
       y="919.49805" />
    <path
       style="fill:#000000"
       d="m 97.85516,996.8732 c -1.174087,-0.376 -3.554197,-0.7219 -5.289137,-0.7688 -2.07117,-0.056 -3.97717,-0.81901 -5.55022,-2.22238 -2.37969,-2.12295 -2.3843,-2.14734 -0.68724,-3.62899 3.16775,-2.76569 7.2572,-8.55595 7.2572,-10.27546 0,-2.23709 1.93435,-2.91678 4.061221,-1.42707 1.637168,1.14673 6.150856,1.61725 10.342876,1.07828 2.99011,-0.38445 4.32625,2.13818 2.3116,4.36435 -1.47356,1.62832 -1.4835,1.86932 -0.16036,3.88871 1.59911,2.44052 1.07062,6.58655 -0.75048,5.88774 -0.61389,-0.2356 -1.37343,-0.0123 -1.68786,0.49675 -0.56614,0.91598 -6.14399,3.53967 -7.17677,3.37567 -0.29487,-0.047 -1.496746,-0.3928 -2.67083,-0.7688 z m 8.76042,-3.89787 c 1.35907,-1.14358 2.15338,-2.08517 1.76512,-2.09234 -0.38825,-0.007 -0.15427,-0.36219 0.52001,-0.78878 1.01598,-0.64294 1.03462,-1.00622 0.1089,-2.12166 -1.17198,-1.41211 -3.46953,-1.84267 -3.46953,-0.65017 0,1.17719 -5.878616,3.57338 -8.781237,3.57932 -1.51038,0.007 -3.89888,0.76904 -5.30778,1.70209 l -2.56164,1.69656 3.57859,0.007 c 1.96823,0.007 3.83226,-0.40487 4.1423,-0.90648 0.31005,-0.50167 1.121171,-0.6982 1.802505,-0.43671 0.69178,0.26546 1.008446,0.10261 0.717116,-0.36874 -0.286917,-0.46423 0.296938,-0.84411 1.297456,-0.84411 1.65377,0 1.69717,0.12201 0.47734,1.34182 -3.681877,3.68187 1.31795,3.57997 5.71085,-0.11646 z m -11.953227,-5.53409 c 0.57307,-0.91769 1.36923,-1.66849 1.76924,-1.66849 0.4,0 1.731851,-0.79021 2.95969,-1.75598 1.487557,-1.17016 2.909657,-1.5861 4.262157,-1.2466 1.29557,0.32516 1.8312,0.1882 1.48085,-0.37871 -0.95929,-1.55215 -6.049605,-1.01072 -7.706067,0.81965 -1.89634,2.09543 -3.76947,2.30036 -1.95153,0.21347 0.71596,-0.82184 1.11627,-2.00894 0.8896,-2.63801 -0.40893,-1.13484 -1.57751,0.39525 -3.5088,4.59436 -0.44087,0.9586 -1.41375,2.25089 -2.16195,2.87183 -0.74821,0.62101 -1.14916,1.47079 -0.89102,1.88844 0.62824,1.01653 3.5515,-0.60823 4.85783,-2.69996 z m 4.900566,-0.81461 c 0.400764,0 0.909851,0.58392 1.131291,1.29756 0.28155,0.90737 0.36106,0.84316 0.26439,-0.21347 -0.16758,-1.83161 -2.61457,-2.03667 -2.747031,-0.23021 -0.05397,0.73639 0.05841,0.82717 0.264389,0.21347 0.197068,-0.58699 0.686205,-1.06735 1.086961,-1.06735 z m 8.965731,-4.2694 c 0.29026,-0.46963 0.12081,-0.85388 -0.37654,-0.85388 -0.49735,0 -0.90427,0.38425 -0.90427,0.85388 0,0.46964 0.16944,0.85388 0.37655,0.85388 0.20709,0 0.61401,-0.38424 0.90426,-0.85388 z"
       id="path5187"
       inkscape:connector-curvature="0"
       sodipodi:nodetypes="ccsssssccccccccccscccccccsscccscccsccscccsccccssssss" />
    <text
       xml:space="preserve"
       style="font-style:normal;font-weight:normal;font-size:7.88177681px;line-height:125%;font-family:sans-serif;letter-spacing:0px;word-spacing:0px;fill:#000000;fill-opacity:1;stroke:none;stroke-width:1px;stroke-linecap:butt;stroke-linejoin:miter;stroke-opacity:1"
       x="117.80883"
       y="984.6062"
       id="text4947-3"
       sodipodi:linespacing="125%"><tspan
         sodipodi:role="line"
         id="tspan4949-9"
         x="117.80883"
         y="984.6062"
         style="font-style:normal;font-variant:normal;font-weight:bold;font-stretch:normal;font-size:7.5px;font-family:sans-serif;-inkscape-font-specification:'sans-serif Bold'">Privacy Badger</tspan><tspan
         sodipodi:role="line"
         x="117.80883"
         y="993.9812"
         style="font-style:normal;font-variant:normal;font-weight:normal;font-stretch:normal;font-size:7.5px;font-family:sans-serif;-inkscape-font-specification:sans-serif"
         id="tspan5224">Privacy Badger vous protège des traqueurs lors...</tspan></text>
    <text
       xml:space="preserve"
       style="font-style:normal;font-weight:normal;font-size:10.77309799px;line-height:125%;font-family:sans-serif;letter-spacing:0px;word-spacing:0px;fill:#000000;fill-opacity:1;stroke:none;stroke-width:1px;stroke-linecap:butt;stroke-linejoin:miter;stroke-opacity:1"
       x="203.9272"
       y="1012.2885"
       id="text5001-8"
       sodipodi:linespacing="125%"><tspan
         sodipodi:role="line"
         id="tspan5003-7"
         x="203.9272"
         y="1012.2885"
         style="font-style:normal;font-variant:normal;font-weight:bold;font-stretch:normal;font-family:sans-serif;-inkscape-font-specification:'sans-serif Bold'">Désactiver    Supprimer</tspan></text>
    <rect
       style="opacity:1;fill:none;fill-opacity:1;stroke:#000000;stroke-width:1.55992365;stroke-linejoin:round;stroke-miterlimit:4;stroke-dasharray:none;stroke-dashoffset:0;stroke-opacity:1"
       id="rect5005-7"
       width="69.740837"
       height="16.404343"
       x="202.00642"
       y="1000.8069"
       ry="0" />
    <rect
       style="opacity:1;fill:none;fill-opacity:1;stroke:#000000;stroke-width:1.54908288;stroke-linejoin:round;stroke-miterlimit:4;stroke-dasharray:none;stroke-dashoffset:0;stroke-opacity:1"
       id="rect5005-1-3"
       width="68.729454"
       height="16.41518"
       x="281.67844"
       y="1000.7161"
       ry="0" />
    <rect
       style="opacity:1;fill:#cccccc;fill-opacity:1;stroke:none;stroke-width:1;stroke-linejoin:round;stroke-miterlimit:4;stroke-dasharray:none;stroke-dashoffset:0;stroke-opacity:1"
       id="rect5299"
       width="71.468292"
       height="22.223356"
       x="11.231618"
       y="943.28906" />
    <flowRoot
       xml:space="preserve"
       id="flowRoot5277"
       style="font-style:normal;font-weight:normal;font-size:18.58559799px;line-height:125%;font-family:sans-serif;letter-spacing:0px;word-spacing:0px;fill:#000000;fill-opacity:1;stroke:none;stroke-width:1px;stroke-linecap:butt;stroke-linejoin:miter;stroke-opacity:1"
       transform="matrix(0.6562897,0,0,0.6562897,131.94323,264.82287)"><flowRegion
         id="flowRegion5279"><rect
           id="rect5281"
           width="107.01346"
           height="196.1913"
           x="-181.2907"
           y="1004.0912" /></flowRegion><flowPara
         id="flowPara5283"
         style="line-height:160.00000238%">Catalogue</flowPara><flowPara
         id="flowPara5285"
         style="line-height:160.00000238%">Extensions</flowPara><flowPara
         id="flowPara5287"
         style="line-height:160.00000238%">Apparence</flowPara><flowPara
         id="flowPara5289"
         style="line-height:160.00000238%">Plugins</flowPara><flowPara
         id="flowPara5295"
         style="line-height:160.00000238%">Langues</flowPara><flowPara
         id="flowPara5297"
         style="line-height:160.00000238%">Services</flowPara><flowPara
         id="flowPara5291"
         style="line-height:160.00000238%" /><flowPara
         id="flowPara5293"
         style="line-height:160.00000238%" /></flowRoot>  </g>
</svg>
