<?xml version="1.0" encoding="UTF-8" standalone="no"?>
<!-- Created with Inkscape (http://www.inkscape.org/) -->

<svg
   xmlns:dc="http://purl.org/dc/elements/1.1/"
   xmlns:cc="http://creativecommons.org/ns#"
   xmlns:rdf="http://www.w3.org/1999/02/22-rdf-syntax-ns#"
   xmlns:svg="http://www.w3.org/2000/svg"
   xmlns="http://www.w3.org/2000/svg"
   xmlns:sodipodi="http://sodipodi.sourceforge.net/DTD/sodipodi-0.dtd"
   xmlns:inkscape="http://www.inkscape.org/namespaces/inkscape"
   width="10cm"
   height="7.1999998cm"
   viewBox="0 0 354.33071 0"
   id="svg2"
   version="1.1"
   inkscape:version="0.91 r13725"
   sodipodi:docname="surflien.svg"
   inkscape:export-filename="/media/h4ck3r/GrosDisque/Fichiersdetravail/Projets_Libres/LIVRESENCOURS/manueldumo/images/surflienNEW.png"
   inkscape:export-xdpi="300"
   inkscape:export-ydpi="300">
  <defs
     id="defs4" />
  <sodipodi:namedview
     id="base"
     pagecolor="#ffffff"
     bordercolor="#666666"
     borderopacity="1.0"
     inkscape:pageopacity="0.0"
     inkscape:pageshadow="2"
     inkscape:zoom="1.4"
     inkscape:cx="-118.81121"
     inkscape:cy="223.74116"
     inkscape:document-units="px"
     inkscape:current-layer="layer1"
     showgrid="false"
     units="cm"
     inkscape:window-width="1920"
     inkscape:window-height="1026"
     inkscape:window-x="0"
     inkscape:window-y="0"
     inkscape:window-maximized="1"
     fit-margin-top="0.1"
     fit-margin-left="0.1"
     fit-margin-bottom="0.1"
     fit-margin-right="0.1" />
  <metadata
     id="metadata7">
    <rdf:RDF>
      <cc:Work
         rdf:about="">
        <dc:format>image/svg+xml</dc:format>
        <dc:type
           rdf:resource="http://purl.org/dc/dcmitype/StillImage" />
        <dc:title></dc:title>
      </cc:Work>
    </rdf:RDF>
  </metadata>
  <g
     inkscape:label="Calque 1"
     inkscape:groupmode="layer"
     id="layer1"
     transform="translate(-2.3897126,-897.52039)">
    <rect
       style="opacity:1;fill:#ffffff;fill-opacity:1;stroke:none;stroke-width:1.5;stroke-linejoin:round;stroke-miterlimit:4;stroke-dasharray:none;stroke-dashoffset:0;stroke-opacity:1"
       id="rect4196"
       width="377.14285"
       height="279.28571"
       x="-12.610288"
       y="884.78137" />
    <rect
       style="opacity:1;fill:#ffffff;fill-opacity:1;stroke:#000000;stroke-width:2.14751291;stroke-linejoin:round;stroke-miterlimit:4;stroke-dasharray:none;stroke-dashoffset:0;stroke-opacity:1"
       id="rect4136"
       width="328.33521"
       height="241.63123"
       x="7.7215066"
       y="906.38745"
       ry="12.717435" />
    <g
       id="g4189"
       transform="matrix(0.58810229,-0.59835929,0.60180734,0.58473276,112.65217,753.63113)">
      <path
         id="rect4148-3"
         d="m 37.079917,306.64048 c -0.95342,0 -1.72193,0.76699 -1.72193,1.72041 l 0,4.42652 -4.37632,0 c -0.95343,0 -1.72042,0.76699 -1.72042,1.72041 0,0.95342 0.76699,1.72041 1.72042,1.72041 l 4.37632,0 0,4.62275 c 0,0.95341 0.76851,1.72041 1.72193,1.72041 0.95341,0 1.72041,-0.767 1.72041,-1.72041 l 0,-4.62275 4.67142,0 c 0.95342,0 1.72041,-0.76699 1.72041,-1.72041 0,-0.95342 -0.76699,-1.72041 -1.72041,-1.72041 l -4.67142,0 0,-4.42652 c 0,-0.95342 -0.767,-1.72041 -1.72041,-1.72041 z"
         style="opacity:1;fill:#000000;fill-opacity:1;stroke:none;stroke-width:3.54330707;stroke-linejoin:round;stroke-miterlimit:4;stroke-dasharray:none;stroke-dashoffset:0;stroke-opacity:1"
         inkscape:connector-curvature="0" />
      <rect
         style="opacity:1;fill:#000000;fill-opacity:1;stroke:none;stroke-width:3.54330707;stroke-linejoin:round;stroke-miterlimit:4;stroke-dasharray:none;stroke-dashoffset:0;stroke-opacity:1"
         id="rect4192"
         width="13.768497"
         height="3.0596659"
         x="227.25305"
         y="196.33365"
         transform="matrix(0.69891616,0.71520361,-0.71520361,0.69891616,0,0)"
         ry="1.529833" />
      <flowRoot
         xml:space="preserve"
         id="flowRoot4194"
         style="font-style:normal;font-weight:normal;font-size:40px;line-height:125%;font-family:sans-serif;letter-spacing:0px;word-spacing:0px;fill:#000000;fill-opacity:1;stroke:none;stroke-width:1px;stroke-linecap:butt;stroke-linejoin:miter;stroke-opacity:1"
         transform="matrix(0.69891616,0.71520361,-0.71520361,0.69891616,118.99393,338.67144)"><flowRegion
           id="flowRegion4196"><rect
             id="rect4198"
             width="145.46196"
             height="150.00766"
             x="43.941635"
             y="98.140587" /></flowRegion><flowPara
           id="flowPara4200" /></flowRoot>      <text
         xml:space="preserve"
         style="font-style:normal;font-weight:normal;font-size:40px;line-height:125%;font-family:sans-serif;letter-spacing:0px;word-spacing:0px;fill:#000000;fill-opacity:1;stroke:none;stroke-width:1px;stroke-linecap:butt;stroke-linejoin:miter;stroke-opacity:1"
         x="252.14975"
         y="141.14725"
         id="text4218"
         sodipodi:linespacing="125%"
         transform="matrix(0.69891616,0.71520361,-0.71520361,0.69891616,0,0)"><tspan
           sodipodi:role="line"
           id="tspan4220"
           x="252.14975"
           y="141.14725" /></text>
    </g>
    <text
       xml:space="preserve"
       style="font-style:normal;font-weight:normal;font-size:10.70036221px;line-height:125%;font-family:sans-serif;letter-spacing:0px;word-spacing:0px;fill:#000000;fill-opacity:1;stroke:none;stroke-width:1px;stroke-linecap:butt;stroke-linejoin:miter;stroke-opacity:1"
       x="161.44104"
       y="917.2381"
       id="text4620"
       sodipodi:linespacing="125%"><tspan
         sodipodi:role="line"
         id="tspan4622"
         x="161.44104"
         y="917.2381"
         style="font-style:italic;font-variant:normal;font-weight:normal;font-stretch:normal;font-family:sans-serif;-inkscape-font-specification:'sans-serif Italic'">Firefox</tspan></text>
    <circle
       style="opacity:1;fill:#b3b3b3;fill-opacity:1;stroke:none;stroke-width:1.5;stroke-linejoin:round;stroke-miterlimit:4;stroke-dasharray:none;stroke-dashoffset:0;stroke-opacity:1"
       id="path4626"
       cx="17.915037"
       cy="930.59839"
       r="7.6652207" />
    <text
       xml:space="preserve"
       style="font-style:normal;font-weight:normal;font-size:17.82251549px;line-height:125%;font-family:sans-serif;letter-spacing:0px;word-spacing:0px;fill:#000000;fill-opacity:1;stroke:none;stroke-width:1px;stroke-linecap:butt;stroke-linejoin:miter;stroke-opacity:1"
       x="13.445256"
       y="808.79102"
       id="text4628"
       sodipodi:linespacing="125%"
       transform="scale(0.86334276,1.1582885)"><tspan
         sodipodi:role="line"
         id="tspan4630"
         x="13.445256"
         y="808.79102">←</tspan></text>
    <rect
       style="opacity:1;fill:#b3b3b3;fill-opacity:1;stroke:#000000;stroke-width:0.8927272;stroke-linejoin:round;stroke-miterlimit:4;stroke-dasharray:none;stroke-dashoffset:0;stroke-opacity:1"
       id="rect4652"
       width="189.59825"
       height="14.02857"
       x="45.013317"
       y="923.54095"
       ry="0.57566023" />
    <text
       xml:space="preserve"
       style="font-style:normal;font-weight:normal;font-size:10.83935356px;line-height:125%;font-family:sans-serif;letter-spacing:0px;word-spacing:0px;fill:#000000;fill-opacity:1;stroke:none;stroke-width:1px;stroke-linecap:butt;stroke-linejoin:miter;stroke-opacity:1"
       x="30.050688"
       y="1519.7646"
       id="text4632"
       sodipodi:linespacing="125%"
       transform="scale(1.6283157,0.61413153)"><tspan
         sodipodi:role="line"
         id="tspan4634"
         x="30.050688"
         y="1519.7646">i</tspan></text>
    <circle
       style="opacity:1;fill:none;fill-opacity:1;stroke:#000000;stroke-width:0.57265484;stroke-linejoin:round;stroke-miterlimit:4;stroke-dasharray:none;stroke-dashoffset:0;stroke-opacity:1"
       id="path4636"
       cx="51.377373"
       cy="930.86377"
       r="3.5961363" />
    <rect
       style="opacity:1;fill:none;fill-opacity:1;stroke:#000000;stroke-width:0.78990859;stroke-linejoin:round;stroke-miterlimit:4;stroke-dasharray:none;stroke-dashoffset:0;stroke-opacity:1"
       id="rect4638"
       width="4.0389152"
       height="4.5326595"
       x="58.450474"
       y="927.8573"
       ry="2.2663298" />
    <rect
       style="opacity:1;fill:#000000;fill-opacity:1;stroke:none;stroke-width:1.5;stroke-linejoin:round;stroke-miterlimit:4;stroke-dasharray:none;stroke-dashoffset:0;stroke-opacity:1"
       id="rect4640"
       width="5.9249368"
       height="4.6905751"
       x="57.482777"
       y="930.00006"
       ry="0" />
    <text
       xml:space="preserve"
       style="font-style:normal;font-weight:normal;font-size:9.83300495px;line-height:125%;font-family:sans-serif;letter-spacing:0px;word-spacing:0px;fill:#000000;fill-opacity:1;stroke:none;stroke-width:1px;stroke-linecap:butt;stroke-linejoin:miter;stroke-opacity:1"
       x="68.208481"
       y="901.00317"
       id="text4642"
       sodipodi:linespacing="125%"
       transform="scale(0.96507322,1.0361908)"><tspan
         sodipodi:role="line"
         id="tspan4644"
         x="68.208481"
         y="901.00317">https://fr.wikipedia.org/wiki/Rév</tspan></text>
    <rect
       style="opacity:1;fill:#b3b3b3;fill-opacity:1;stroke:#000000;stroke-width:0.8927272;stroke-linejoin:round;stroke-miterlimit:4;stroke-dasharray:none;stroke-dashoffset:0;stroke-opacity:1"
       id="rect4652-3"
       width="65.404259"
       height="13.865221"
       x="237.16624"
       y="923.74829"
       ry="0.56895715" />
    <circle
       style="opacity:1;fill:none;fill-opacity:1;stroke:#000000;stroke-width:1.14541769;stroke-linejoin:round;stroke-miterlimit:4;stroke-dasharray:none;stroke-dashoffset:0;stroke-opacity:1"
       id="path4648"
       cx="242.95805"
       cy="929.20697"
       r="2.9373267" />
    <rect
       style="opacity:1;fill:#000000;fill-opacity:1;stroke:none;stroke-width:1.43700004;stroke-linejoin:round;stroke-miterlimit:4;stroke-dasharray:none;stroke-dashoffset:0;stroke-opacity:1"
       id="rect4650"
       width="6.355114"
       height="1.5419695"
       x="738.86005"
       y="616.20825"
       ry="0.77098477"
       transform="matrix(0.81513972,0.5792644,-0.5792644,0.81513972,0,0)" />
    <path
       sodipodi:type="star"
       style="opacity:1;fill:#000000;fill-opacity:1;stroke:none;stroke-width:1.5;stroke-linejoin:round;stroke-miterlimit:4;stroke-dasharray:none;stroke-dashoffset:0;stroke-opacity:1"
       id="path4646"
       sodipodi:sides="5"
       sodipodi:cx="226.31461"
       sodipodi:cy="930.72516"
       sodipodi:r1="5.0983858"
       sodipodi:r2="2.5491931"
       sodipodi:arg1="1.3633001"
       sodipodi:arg2="1.9916186"
       inkscape:flatsided="false"
       inkscape:rounded="0"
       inkscape:randomized="0"
       d="m 227.36493,935.71418 -2.0917,-2.66224 -3.3789,0.21383 1.88557,-2.812 -1.2475,-3.14745 3.25705,0.92433 2.6079,-2.15906 0.12739,3.38326 2.85928,1.81309 -3.17831,1.16664 z"
       inkscape:transform-center-x="-0.32455206"
       inkscape:transform-center-y="0.16765342" />
    <rect
       style="opacity:1;fill:#b3b3b3;fill-opacity:1;stroke:#000000;stroke-width:0.8927272;stroke-linejoin:round;stroke-miterlimit:4;stroke-dasharray:none;stroke-dashoffset:0;stroke-opacity:1"
       id="rect4669"
       width="1.3816017"
       height="13.816017"
       x="216.75705"
       y="923.75348"
       ry="0.69080085" />
    <circle
       style="opacity:1;fill:#b3b3b3;fill-opacity:1;stroke:none;stroke-width:1.5;stroke-linejoin:round;stroke-miterlimit:4;stroke-dasharray:none;stroke-dashoffset:0;stroke-opacity:1"
       id="path4626-6"
       cx="-35.049061"
       cy="930.74878"
       r="7.6652207"
       transform="scale(-1,1)" />
    <text
       xml:space="preserve"
       style="font-style:normal;font-weight:normal;font-size:17.82251549px;line-height:125%;font-family:sans-serif;letter-spacing:0px;word-spacing:0px;fill:#000000;fill-opacity:1;stroke:none;stroke-width:1px;stroke-linecap:butt;stroke-linejoin:miter;stroke-opacity:1"
       x="-47.902454"
       y="808.92072"
       id="text4628-7"
       sodipodi:linespacing="125%"
       transform="scale(-0.86334276,1.1582885)"><tspan
         sodipodi:role="line"
         id="tspan4630-5"
         x="-47.902454"
         y="808.92072">←</tspan></text>
    <rect
       style="opacity:1;fill:#000000;fill-opacity:1;stroke:none;stroke-width:1.5;stroke-linejoin:round;stroke-miterlimit:4;stroke-dasharray:none;stroke-dashoffset:0;stroke-opacity:1"
       id="rect4727-7"
       width="91.530396"
       height="36.587311"
       x="263.03723"
       y="1092.7135"
       ry="0" />
    <flowRoot
       xml:space="preserve"
       id="flowRoot4719-8"
       style="font-style:normal;font-weight:normal;font-size:13.01326466px;line-height:125%;font-family:sans-serif;letter-spacing:0px;word-spacing:0px;fill:#ffffff;fill-opacity:1;stroke:none;stroke-width:1px;stroke-linecap:butt;stroke-linejoin:miter;stroke-opacity:1"
       transform="matrix(1.1367183,0,0,1.1367183,263.32429,1093.0006)"><flowRegion
         id="flowRegion4721-5"><rect
           id="rect4723-8"
           width="88.054192"
           height="38.903687"
           x="2.9551425"
           y="-0.99596995"
           style="fill:#ffffff" /></flowRegion><flowPara
         id="flowPara4729-8">Adresse de destination</flowPara></flowRoot>    <flowRoot
       xml:space="preserve"
       id="flowRoot4187"
       style="font-style:normal;font-weight:normal;font-size:40px;line-height:125%;font-family:sans-serif;letter-spacing:0px;word-spacing:0px;fill:#000000;fill-opacity:1;stroke:none;stroke-width:1px;stroke-linecap:butt;stroke-linejoin:miter;stroke-opacity:1"
       transform="matrix(0.95658249,0,0,0.95658249,229.42129,1017.3885)"><flowRegion
         id="flowRegion4189"><rect
           id="rect4191"
           width="333.59906"
           height="279.99426"
           x="-227.28432"
           y="-66.320274" /></flowRegion><flowPara
         id="flowPara4193"
         style="font-size:8.75px">À Paris en 1848, les conditions d'existence (durée et dureté du travail, misère, conditions d’hygiène et de santé, voire environnement redoutable de la criminalité) sont difficiles. La grande industrie a été rejetée sur les villages périphériques, La <flowSpan
   style="font-size:8.75px;fill:#0000ff"
   id="flowSpan4209">Villette</flowSpan>, les <flowSpan
   style="font-size:8.75px;fill:#0000ff"
   id="flowSpan4211">Batignolles</flowSpan>. La plupart des ouvriers sont occupés dans des ateliers œuvrant pour le luxe (la moitié des 64 000 ateliers est tenue par un patron seul ou avec un seul ouvrier). Les spécialités sont très diversifiées (plus de 325 métiers recensés) où dominent le vêtement (90 000 travailleurs) et le bâtiment (41 000).</flowPara><flowPara
         style="font-size:8.75px"
         id="flowPara4207">Même après les avancées des <flowSpan
   style="font-size:8.75px;fill:#0000ff"
   id="flowSpan4213">Trois Glorieuses</flowSpan>, en 1830, obtenant une <flowSpan
   style="font-size:8.75px;fill:#0000ff"
   id="flowSpan4215">monarchie constitutionnelle</flowSpan>, les antagonismes s'exaspèrent, en ces temps d'épidémie, de <flowSpan
   style="font-size:8.75px;fill:#0000ff"
   id="flowSpan4217">choléra</flowSpan>, de disette, de <flowSpan
   style="font-size:8.75px;fill:#0000ff"
   id="flowSpan4219">crise financière</flowSpan>, de rivalités politiques ou de querelle à propos des écoles religieuses. Les incidents se produisent plus régulièrement dans la capitale qu'en province et peuvent alors faire resurgir les <flowSpan
   style="font-size:8.75px;fill:#0000ff"
   id="flowSpan4221">barricades</flowSpan>.</flowPara><flowPara
         id="flowPara4195"
         style="font-size:8.75px" /><flowPara
         id="flowPara4197"
         style="font-size:8.75px" /></flowRoot>    <flowRoot
       xml:space="preserve"
       id="flowRoot4199"
       style="font-style:normal;font-weight:normal;font-size:40px;line-height:125%;font-family:sans-serif;letter-spacing:0px;word-spacing:0px;fill:#000000;fill-opacity:1;stroke:none;stroke-width:1px;stroke-linecap:butt;stroke-linejoin:miter;stroke-opacity:1"
       transform="translate(2.3897126,893.18965)"><flowRegion
         id="flowRegion4201"><rect
           id="rect4203"
           width="200"
           height="157.14285"
           x="-259.28571"
           y="-81.265465" /></flowRegion><flowPara
         id="flowPara4205" /></flowRoot>    <g
       id="g4298"
       transform="matrix(0.58570637,0,0,0.58570637,180.80551,459.71607)">
      <path
         inkscape:connector-curvature="0"
         id="path4296"
         d="m -47.234031,1021.4449 c 0.167251,0.2662 0.431697,-0.066 0.631346,0 0.111476,0.037 0.657697,0.3122 0.757614,0.3788 0.04953,0.033 0.07303,0.1 0.126269,0.1263 0.03765,0.019 0.08634,-0.013 0.126269,0 0.457762,0.1526 0.08987,0.06 0.378807,0.2526 0.07831,0.052 0.17423,0.074 0.252538,0.1262 0.09905,0.066 0.153485,0.1865 0.252539,0.2526 0.156617,0.1044 0.348458,0.1481 0.505076,0.2525 0.04953,0.033 0.08418,0.084 0.126269,0.1263 0.144471,0.1444 0.149474,0.1761 0.378807,0.2525 0.03993,0.013 0.08634,-0.013 0.126269,0 0.08929,0.03 0.163253,0.096 0.252538,0.1263 0.03993,0.013 0.08862,-0.019 0.126269,0 0.05324,0.027 0.07674,0.093 0.126269,0.1262 0.07831,0.052 0.17423,0.074 0.252539,0.1263 0.04953,0.033 0.08418,0.084 0.126269,0.1263 0.168358,0.1683 0.336717,0.3367 0.505076,0.5051 0.08418,0.084 0.153484,0.1865 0.252538,0.2525 0.07831,0.052 0.174229,0.074 0.252538,0.1263 0.06166,0.041 0.463967,0.4434 0.505077,0.505 0.05221,0.078 0.07406,0.1743 0.126269,0.2526 0.03302,0.049 0.08418,0.084 0.126269,0.1262 0.04209,0.042 0.09325,0.077 0.126269,0.1263 0.05221,0.078 0.07406,0.1742 0.126269,0.2526 0.07264,0.1089 0.28018,0.2801 0.378807,0.3788 0.04209,0.042 0.08418,0.084 0.126269,0.1262 0.04209,0.042 0.09965,0.073 0.126269,0.1263 0.01882,0.038 -0.01882,0.089 0,0.1263 0.05596,0.1119 0.302178,0.2638 0.378807,0.3788 0.05221,0.078 0.07406,0.1742 0.126269,0.2525 0.07264,0.109 0.280181,0.2802 0.378808,0.3788 0.04209,0.042 0.08418,0.084 0.126269,0.1263 0.04209,0.042 0.07303,0.1 0.126269,0.1263 0.03765,0.019 0.08862,-0.019 0.126269,0 0.05324,0.027 0.07303,0.1 0.126269,0.1262 0.03843,0.019 0.321941,0 0.378807,0 0.05687,0 0.340379,-0.019 0.378807,0 0.05324,0.027 0.07303,0.1 0.126269,0.1263 0.01725,0.01 0.74037,0.01 0.757615,0 0.222297,-0.1111 0.07464,-0.1723 0.126269,-0.3788 0.02283,-0.091 0.103443,-0.1612 0.126269,-0.2525 0.02042,-0.082 0,-0.1684 0,-0.2526 0,-0.084 0,-0.1683 0,-0.2525 0,-0.042 -0.01331,-0.086 0,-0.1263 0.02976,-0.089 0.09651,-0.1632 0.126269,-0.2525 0.02375,-0.071 0,-0.2959 0,-0.3788 0,-0.3368 0,-0.6735 0,-1.0102 0,-0.083 -0.02375,-0.3076 0,-0.3788 0.02976,-0.089 0.09651,-0.1632 0.126269,-0.2525 0.0251,-0.075 0,-0.6353 0,-0.7576 0,-0.2105 0,-0.4209 0,-0.6314 0,-0.083 -0.02375,-0.3076 0,-0.3788 0.02976,-0.089 0.103443,-0.1612 0.126269,-0.2525 0.0327,-0.1308 0,-0.3603 0,-0.5051 0,-0.2946 0,-0.5893 0,-0.8839 0,-0.2104 0,-0.4209 0,-0.6313 0,-0.084 0.02662,-0.1727 0,-0.2526 -0.02976,-0.089 -0.09651,-0.1632 -0.126269,-0.2525 -0.02642,-0.079 0,-0.4034 0,-0.5051 0,-0.3788 0,-0.7576 0,-1.1364 0,-0.1684 0,-0.3367 0,-0.5051 0,-0.042 -0.04209,-0.1263 0,-0.1263 0.04209,0 0.01882,0.1639 0,0.1263 -0.05952,-0.119 -0.09399,-0.2497 -0.126269,-0.3788 -0.02554,-0.1022 0,-0.6128 0,-0.6313 0,-0.8839 0,-1.7678 0,-2.6517 0,-0.1684 0,-0.3367 0,-0.5051 0,-0.084 -0.02042,-0.1708 0,-0.2525 0.03228,-0.1291 0.09399,-0.2497 0.126269,-0.3788 0.01021,-0.041 0,-0.084 0,-0.1263 0,-0.1263 -0.02476,-0.255 0,-0.3788 0.01846,-0.092 0.107812,-0.1602 0.126269,-0.2525 0.02476,-0.1239 0,-0.2526 0,-0.3788 0,-0.2526 0,-0.5051 0,-0.7577 0,-0.2104 0,-0.4209 0,-0.6313 0,-0.084 0.02662,-0.1727 0,-0.2525 -0.02976,-0.089 -0.09651,-0.1633 -0.126269,-0.2526 -0.03788,-0.1136 0.03788,-0.2651 0,-0.3788 -0.02976,-0.089 -0.08418,-0.1683 -0.126269,-0.2525 0,-0.1263 0.02476,-0.255 0,-0.3788 -0.01846,-0.092 -0.09651,-0.1633 -0.126269,-0.2526 -0.03788,-0.1136 0.03788,-0.2651 0,-0.3788 -0.02976,-0.089 -0.09651,-0.1632 -0.126269,-0.2525 -0.02642,-0.079 0,-0.4034 0,-0.5051 0,-0.4209 0,-0.8418 0,-1.2627 0,-0.4209 0,-0.8418 0,-1.2627 0,-0.1812 -0.03751,-0.4813 0,-0.6313 0.01444,-0.058 0.09965,-0.073 0.126269,-0.1263 0.03765,-0.075 -0.02662,-0.1727 0,-0.2525 0.02976,-0.089 0.09651,-0.1633 0.126269,-0.2526 0.04472,-0.1341 -0.04472,-0.3709 0,-0.505 0.185614,-0.5569 0.01403,-0.1333 0.252538,-0.2526 0.05324,-0.027 0.07674,-0.093 0.126269,-0.1262 0.07831,-0.052 0.185989,-0.06 0.252538,-0.1263 0.02976,-0.03 -0.01882,-0.089 0,-0.1263 0.02662,-0.053 0.09965,-0.073 0.126269,-0.1263 0.01882,-0.038 -0.01882,-0.089 0,-0.1262 0.02662,-0.053 0.09965,-0.073 0.126269,-0.1263 0.01882,-0.038 0,-0.084 0,-0.1263 0.04209,-0.042 0.09965,-0.073 0.12627,-0.1262 0.03567,-0.071 -0.03531,-0.5254 0,-0.6314 0.02976,-0.089 0.09651,-0.1632 0.126269,-0.2525 0.01331,-0.04 -0.01331,-0.086 0,-0.1263 0.02976,-0.089 0.08418,-0.1683 0.126269,-0.2525 0.04209,-0.084 0.07406,-0.1742 0.126269,-0.2526 0.03302,-0.049 0.09325,-0.077 0.126269,-0.1262 0.01568,-0.024 0.244447,-0.49701 0.252538,-0.5051 0.0057,-0.006 0.57181,0 0.631345,0 0.462987,0 0.925973,0 1.38896,0 0.08783,0 0.585682,-0.0228 0.631345,0 0.05324,0.0266 0.07303,0.0996 0.126269,0.1263 0.101016,0.05 0.277792,-0.051 0.378808,0 0.05324,0.027 0.07303,0.1 0.126269,0.1262 0.07529,0.038 0.170872,-0.02 0.252538,0 0.129125,0.032 0.249682,0.094 0.378807,0.1263 0.04083,0.01 0.08634,-0.013 0.126269,0 0.08929,0.03 0.163253,0.097 0.252538,0.1263 0.07124,0.024 0.295835,0 0.378807,0 0.294628,0 0.589256,0 0.883884,0 0.168359,0 0.341744,-0.041 0.505076,0 0.05775,0.014 0.0698,0.1074 0.126269,0.1262 0.574813,0 0.0072,-0.059 0.378807,0.1263 0.03765,0.019 0.08634,-0.013 0.12627,0 0.08929,0.03 0.163252,0.096 0.252538,0.1263 0.233246,0.078 0.05986,-0.1927 0.378807,0.1262 0.318943,0.319 0.04852,0.1456 0.126269,0.3789 0.02976,0.089 0.07406,0.1742 0.126269,0.2525 0.06604,0.099 0.199298,0.1461 0.252538,0.2525 0.05051,0.101 -0.05051,0.2778 0,0.3788 0.02662,0.053 0.09965,0.073 0.126269,0.1263 0.0094,0.019 0.0092,0.4774 0,0.5051 -0.05952,0.1786 -0.193014,0.3265 -0.252538,0.5051 -0.01331,0.04 0.01882,0.089 0,0.1262 -0.156031,0.3121 -0.126269,-0.044 -0.126269,0.2526 0,0.5892 0,1.1785 0,1.7677 0,0.1684 0,0.3368 0,0.5051 0,0.1263 0.02476,0.255 0,0.3788 -0.01846,0.092 -0.09651,0.1633 -0.126269,0.2526 -0.02662,0.08 0.03765,0.1772 0,0.2525 -0.02662,0.053 -0.09965,0.073 -0.126269,0.1263 -0.0094,0.019 -0.0092,0.4773 0,0.505 0.283588,0.8508 -0.03105,-0.3456 0.252538,0.5051 0.02662,0.08 -0.02662,0.1727 0,0.2526 0.145092,0.4352 0.126269,0.094 0.126269,0.3788 0,0.7155 0,1.431 0,2.1465 0,0.1313 -0.02483,0.6583 0,0.7577 0.02283,0.091 0.09651,0.1632 0.126269,0.2525 0.02662,0.08 -0.02662,0.1727 0,0.2525 0.02976,0.089 0.126269,0.1585 0.126269,0.2526 0,0.059 -0.126269,-0.067 -0.126269,-0.1263 0,-0.042 0.126269,-0.042 0.126269,0 0,0.042 -0.156031,0.03 -0.126269,0 0.08885,-0.089 0.365865,-0.1727 0.505076,-0.1263 0.08929,0.03 0.17423,0.074 0.252539,0.1263 0.04953,0.033 0.08418,0.084 0.126269,0.1263 0.04209,0.042 0.09325,0.077 0.126269,0.1262 0.05221,0.078 0.07406,0.1743 0.126269,0.2526 0.04111,0.062 0.443412,0.4639 0.505076,0.505 0.07831,0.052 0.174229,0.074 0.252538,0.1263 0.04953,0.033 0.08418,0.084 0.126269,0.1263 0.144471,0.1445 0.149474,0.1761 0.378807,0.2525 0.07986,0.027 0.172679,-0.027 0.252539,0 0.178571,0.06 0.326504,0.193 0.505076,0.2526 0.03993,0.013 0.08418,0 0.126269,0 0.08418,0.042 0.163252,0.096 0.252538,0.1262 0.113642,0.038 0.265165,-0.038 0.378807,0 0.08929,0.03 0.168359,0.084 0.252538,0.1263 0.126269,0 0.256309,-0.031 0.378808,0 0.05775,0.014 0.07303,0.1 0.126269,0.1263 0.0745,0.037 0.291955,-0.029 0.378807,0 0.08929,0.03 0.163252,0.096 0.252538,0.1262 0.07986,0.027 0.177246,-0.038 0.252538,0 0.05324,0.027 0.07674,0.093 0.126269,0.1263 0.156618,0.1044 0.348459,0.1481 0.505076,0.2525 0.04953,0.033 0.08418,0.084 0.12627,0.1263 0.08418,0.042 0.174229,0.074 0.252538,0.1263 0.04953,0.033 0.07674,0.093 0.126269,0.1263 0.07831,0.052 0.174229,0.074 0.252538,0.1262 0.04953,0.033 0.08418,0.084 0.126269,0.1263 0.190844,0.1908 0.430369,0.4706 0.631345,0.6313 0.118502,0.095 0.260306,0.1578 0.378807,0.2526 0.185922,0.1487 0.314601,0.3622 0.505077,0.5051 0.150584,0.1129 0.348459,0.1481 0.505076,0.2525 0.09905,0.066 0.146059,0.1993 0.252538,0.2525 0.03765,0.019 0.08634,-0.013 0.126269,0 0.08929,0.03 0.163253,0.096 0.252538,0.1263 0.113643,0.038 0.265165,-0.038 0.378808,0 0.08929,0.03 0.163252,0.096 0.252538,0.1263 0.134175,0.045 0.370901,-0.045 0.505076,0 0.08929,0.03 0.163252,0.097 0.252538,0.1262 0.07986,0.027 0.172679,-0.027 0.252538,0 0.08929,0.03 0.163253,0.096 0.252538,0.1263 0.03993,0.013 0.08862,-0.019 0.126269,0 0.05324,0.027 0.07674,0.093 0.12627,0.1263 0.07831,0.052 0.174229,0.074 0.252538,0.1262 0.04953,0.033 0.07303,0.1 0.126269,0.1263 0.03765,0.019 0.08862,-0.019 0.126269,0 0.05324,0.027 0.07303,0.1 0.126269,0.1263 0.03765,0.019 0.08634,-0.013 0.126269,0 0.178571,0.06 0.326505,0.193 0.505076,0.2525 0.03993,0.013 0.08862,-0.019 0.126269,0 0.05847,0.029 0.430812,0.4308 0.505077,0.5051 0.06648,0.067 0.345088,0.3114 0.378807,0.3788 0.03968,0.079 -0.03968,0.4257 0,0.5051 0.02662,0.053 0.168359,0.084 0.126269,0.1262 -0.04209,0.042 -0.168359,-0.1683 -0.126269,-0.1262 0.210448,0.2104 0.420897,0.4209 0.631345,0.6313 0.07426,0.074 0.446604,0.4759 0.505076,0.5051 0.07667,0.038 0.680941,-0.038 0.757615,0 0.05324,0.027 0.07303,0.1 0.126269,0.1263 0.0745,0.037 0.291955,-0.029 0.378807,0 0.08929,0.03 0.163252,0.096 0.252538,0.1262 0.07986,0.027 0.172679,-0.027 0.2525376,0 0.08929,0.03 0.163253,0.096 0.252538,0.1263 0.134175,0.045 0.370902,-0.045 0.505077,0 0.08929,0.03 0.163252,0.096 0.252538,0.1263 0.08685,0.029 0.304306,-0.037 0.378807,0 0.05324,0.027 0.07303,0.1 0.126269,0.1262 0.07936,0.04 0.425713,-0.04 0.505076,0 0.05324,0.027 0.07303,0.1 0.126269,0.1263 0.101016,0.05 0.2777924,-0.051 0.3788077,0 0.05324,0.027 0.084179,0.084 0.1262691,0.1263 0.098627,0.099 0.2698496,0.3062 0.3788072,0.3788 0.078309,0.052 0.1742293,0.074 0.2525381,0.1263 0.051875,0.034 0.344224,0.3269 0.3788072,0.3788 0.052206,0.078 0.084179,0.1683 0.1262691,0.2525 0.1450921,0.2902 0.126269,0.1584 0.126269,0.3788 0,0.042 0.018823,0.089 0,0.1263 -0.05324,0.1065 -0.1992984,0.146 -0.2525381,0.2525 -0.087085,0.1742 0.1529188,0.113 -0.1262691,0.2526 -0.037646,0.019 -0.088623,-0.019 -0.126269,0 -0.05324,0.027 -0.084179,0.084 -0.1262691,0.1262 -0.04209,0.042 -0.1262691,0.067 -0.1262691,0.1263 0,0.1331 0.084179,0.2525 0.1262691,0.3788 0.050931,0.1528 0.1410624,0.4827 0.2525381,0.6313 0.5461505,0.5462 0.01979,-0.033 0.3788072,0.5051 0.033018,0.05 0.099649,0.073 0.1262691,0.1263 0.034527,0.069 -0.021483,0.2929 0,0.3788 0.032281,0.1291 0.066745,0.2598 0.1262691,0.3788 0.02662,0.053 0.093251,0.077 0.126269,0.1263 0.052206,0.078 0.084179,0.1683 0.1262691,0.2525 0.04209,0.084 0.096507,0.1633 0.1262691,0.2526 0.01331,0.04 0,0.084 0,0.1262 0,0.188 0.018823,0.1612 -0.1262691,0.3788 -0.033018,0.05 -0.099649,0.073 -0.1262691,0.1263 -0.040344,0.081 0.033878,0.4034 0,0.5051 -0.029762,0.089 -0.096507,0.1632 -0.126269,0.2525 -0.023747,0.071 0,0.2958 0,0.3788 0,0.3367 0,0.6735 0,1.0102 0,0.505 0,1.0101 0,1.5152 0,0.1138 -0.026491,0.5519 0,0.6313 0.029762,0.089 0.096507,0.1633 0.126269,0.2526 0.023747,0.071 0,0.2958 0,0.3788 0,0.2104 0,0.4209 0,0.6313 0,0.1263 -0.024763,0.255 0,0.3788 0.018458,0.092 0.096507,0.1633 0.1262691,0.2526 0.02662,0.08 -0.02662,0.1727 0,0.2525 0.029762,0.089 0.096507,0.1633 0.1262691,0.2526 0.01331,0.04 0,0.084 0,0.1262 0,0.1263 -0.030625,0.2563 0,0.3788 0.014437,0.058 0.126269,0.067 0.126269,0.1263 0,0.059 -0.126269,0.067 -0.126269,0.1263 0,0.06 0.093251,0.077 0.126269,0.1262 0.052206,0.078 0.074063,0.1743 0.1262691,0.2526 0.033018,0.05 0.107446,0.07 0.1262691,0.1263 0.02662,0.08 -0.020417,0.1708 0,0.2525 0.022826,0.091 0.1034427,0.1612 0.1262691,0.2525 0.030625,0.1225 -0.03993,0.259 0,0.3788 0.3577004,0.7154 -0.047058,-0.1882 0.126269,0.5051 0.022826,0.091 0.1078115,0.1603 0.1262691,0.2525 0.053898,0.2695 0.016296,0.4175 -0.1262691,0.6314 -0.033018,0.05 -0.1118324,0.069 -0.126269,0.1263 -0.051041,0.2041 0.051041,0.4271 0,0.6313 -0.045653,0.1826 -0.2156231,0.3205 -0.2525382,0.5051 -0.030453,0.1522 0.039456,0.9312 0,1.0101 -0.02662,0.053 -0.084179,0.084 -0.1262691,0.1263 -0.04209,0.042 -0.084179,0.084 -0.126269,0.1263 -0.04209,0.042 -0.093251,0.077 -0.1262691,0.1262 -0.052206,0.078 -0.084179,0.1684 -0.1262691,0.2526 -0.04209,0.084 -0.1078115,0.1602 -0.126269,0.2525 -0.049527,0.2477 0.06125,0.5126 0,0.7576 -0.052256,0.2091 -0.1401255,0.089 -0.2525382,0.1263 -0.457762,0.1526 -0.089865,0.06 -0.3788072,0.2525 -0.078309,0.052 -0.1742294,0.074 -0.2525381,0.1263 -0.049527,0.033 -0.084179,0.084 -0.1262691,0.1263 -0.04209,0.042 -0.093251,0.077 -0.126269,0.1262 -0.1965922,0.2949 -0.3084841,0.7153 -0.5050763,1.0102 -0.070948,0.1064 -0.4793597,0.4279 -0.5050767,0.5051 -0.05324,0.1597 0.04083,0.3417 0,0.5051 -0.02283,0.091 -0.103442,0.1612 -0.126269,0.2525 -0.02042,0.082 0.02042,0.1709 0,0.2525 -0.02283,0.091 -0.09651,0.1633 -0.126269,0.2526 -0.01331,0.04 0,0.084 0,0.1262 -0.04209,0.1263 -0.06674,0.2598 -0.126269,0.3788 -0.02662,0.053 -0.09965,0.073 -0.126269,0.1263 -0.02873,0.057 0.0069,0.6038 0,0.6314 -0.01444,0.058 -0.09965,0.073 -0.126269,0.1262 -0.01882,0.038 0,0.084 0,0.1263 -0.04209,0.084 -0.07406,0.1742 -0.126269,0.2525 -0.03568,0.054 -0.326563,0.3527 -0.378807,0.3788 -0.03765,0.019 -0.08634,-0.013 -0.126269,0 -0.08929,0.03 -0.163253,0.097 -0.252538,0.1263 -0.03993,0.013 -0.08862,-0.019 -0.126269,0 -0.05324,0.027 -0.07303,0.1 -0.12627,0.1263 -0.03765,0.019 -0.08862,-0.019 -0.126269,0 -0.05324,0.027 -0.07674,0.093 -0.126269,0.1262 -0.07831,0.052 -0.1742286,0.074 -0.2525376,0.1263 -0.09905,0.066 -0.168359,0.1684 -0.252538,0.2526 -0.126269,0.1262 -0.252538,0.2525 -0.378807,0.3788 -0.04209,0.042 -0.09325,0.077 -0.126269,0.1262 -0.05221,0.078 -0.07406,0.1743 -0.126269,0.2526 -0.03568,0.053 -0.326564,0.3527 -0.378807,0.3788 -0.03765,0.019 -0.08862,-0.019 -0.12627,0 -0.05324,0.027 -0.08418,0.084 -0.126269,0.1262 -0.04209,0.042 -0.08418,0.084 -0.126269,0.1263 -0.09863,0.099 -0.306168,0.2699 -0.378807,0.3788 -0.05221,0.078 -0.07406,0.1743 -0.126269,0.2526 -0.06604,0.099 -0.186502,0.1534 -0.252538,0.2525 -0.05221,0.078 -0.05972,0.186 -0.126269,0.2525 -0.318944,0.319 -0.145561,0.049 -0.378807,0.1263 -0.08929,0.03 -0.163253,0.097 -0.252539,0.1263 -0.03993,0.013 -0.08634,-0.013 -0.126269,0 -0.178571,0.059 -0.326504,0.193 -0.505076,0.2525 -0.03993,0.013 -0.08634,-0.013 -0.126269,0 -0.178571,0.06 -0.326505,0.193 -0.505076,0.2526 -0.03993,0.013 -0.08634,-0.013 -0.126269,0 -0.178572,0.06 -0.326505,0.193 -0.505077,0.2525 -0.03993,0.013 -0.08418,0 -0.126269,0 -0.08418,0.042 -0.163252,0.097 -0.252538,0.1263 -0.03993,0.013 -0.08862,-0.019 -0.126269,0 -0.05324,0.027 -0.07303,0.1 -0.126269,0.1262 -0.0745,0.037 -0.291955,-0.029 -0.378807,0 -0.08929,0.03 -0.163253,0.096 -0.252538,0.1263 -0.113642,0.038 -0.265165,-0.038 -0.378807,0 -0.08929,0.03 -0.163253,0.097 -0.252539,0.1263 -0.07986,0.027 -0.168358,0 -0.252538,0 -0.210448,0 -0.420897,0 -0.631345,0 -0.294628,0 -0.589256,0 -0.883884,0 -0.126269,0 -0.252538,0 -0.378807,0 -0.04209,0 -0.08634,0.013 -0.126269,0 -0.08929,-0.03 -0.163252,-0.097 -0.252538,-0.1263 -0.07986,-0.027 -0.172678,0.027 -0.252538,0 -0.08929,-0.03 -0.163252,-0.096 -0.252538,-0.1263 -0.09323,-0.031 -0.588466,0.01 -0.631346,0 -0.09229,-0.018 -0.161232,-0.1034 -0.252538,-0.1262 -0.118841,-0.03 -0.259965,0.03 -0.378807,0 -0.129125,-0.032 -0.249682,-0.094 -0.378807,-0.1263 -0.08167,-0.02 -0.170872,0.02 -0.252538,0 -0.129125,-0.032 -0.248293,-0.1002 -0.378807,-0.1263 -0.08254,-0.017 -0.170873,0.02 -0.252539,0 -0.0913,-0.023 -0.161232,-0.1034 -0.252538,-0.1262 -0.08167,-0.02 -0.168358,0 -0.252538,0 -0.126269,0 -0.252538,0 -0.378807,0 -0.294628,0 -0.589256,0 -0.883884,0 -0.505076,0 -1.010152,0 -1.515228,0 -0.122338,0 -0.682324,-0.025 -0.757615,0 -0.08929,0.03 -0.163252,0.097 -0.252538,0.1262 -0.07986,0.027 -0.172678,-0.027 -0.252538,0 -0.08929,0.03 -0.161233,0.1035 -0.252538,0.1263 -0.08167,0.02 -0.168359,0 -0.252538,0 -0.126269,0 -0.252538,0 -0.378807,0 -0.336718,0 -0.673436,0 -1.010153,0 -1.178511,0 -2.357023,0 -3.535534,0 -0.505076,0 -1.010152,0 -1.515229,0 -0.03821,0 -0.954142,0.019 -1.010152,0 -0.08929,-0.03 -0.168359,-0.084 -0.252538,-0.1263 -0.08418,-0.042 -0.17423,-0.074 -0.252539,-0.1262 -0.06166,-0.041 -0.463967,-0.4435 -0.505076,-0.5051 -0.05221,-0.078 -0.09651,-0.1633 -0.126269,-0.2526 -0.01331,-0.04 0.01331,-0.086 0,-0.1262 -0.02976,-0.089 -0.103443,-0.1613 -0.126269,-0.2526 -0.02042,-0.082 0,-0.1683 0,-0.2525 0,-0.2525 0,-0.5051 0,-0.7576 0,-0.084 0.02662,-0.1727 0,-0.2526 -0.02976,-0.089 -0.09132,-0.1651 -0.126269,-0.2525 -0.04943,-0.1236 -0.05779,-0.2647 -0.126269,-0.3788 -0.06125,-0.1021 -0.18111,-0.1573 -0.252538,-0.2525 -0.112939,-0.1506 -0.148127,-0.3485 -0.252538,-0.5051 -0.03302,-0.049 -0.08418,-0.084 -0.126269,-0.1263 -0.04209,-0.042 -0.07674,-0.093 -0.12627,-0.1263 -0.184009,-0.1226 -0.263001,-0.079 -0.378807,-0.2525 -0.05221,-0.078 -0.07785,-0.1718 -0.126269,-0.2525 -0.07808,-0.1302 -0.177246,-0.2471 -0.252538,-0.3788 -0.09339,-0.1635 -0.152776,-0.3455 -0.252538,-0.5051 -0.111538,-0.1785 -0.256487,-0.3338 -0.378807,-0.5051 -0.08821,-0.1235 -0.161484,-0.2574 -0.252538,-0.3788 -0.03571,-0.048 -0.09325,-0.077 -0.126269,-0.1263 -0.104412,-0.1566 -0.1396,-0.3545 -0.252539,-0.505 -0.07143,-0.095 -0.181109,-0.1573 -0.252538,-0.2526 -0.05647,-0.075 -0.07406,-0.1742 -0.126269,-0.2525 -0.03302,-0.05 -0.09325,-0.077 -0.126269,-0.1263 -0.06478,-0.097 -0.187761,-0.4079 -0.252538,-0.5051 -0.06604,-0.099 -0.186502,-0.1535 -0.252538,-0.2525 -0.104412,-0.1566 -0.148127,-0.3485 -0.252538,-0.5051 -0.06604,-0.099 -0.214892,-0.1396 -0.252538,-0.2525 -0.02662,-0.08 0.02042,-0.1709 0,-0.2526 0.07611,-0.2285 -0.204549,-0.2348 -0.252539,-0.3788 -0.02662,-0.08 0.02662,-0.1726 0,-0.2525 -0.01882,-0.057 -0.107446,-0.07 -0.126269,-0.1263 -0.02662,-0.08 0.02662,-0.1727 0,-0.2525 -0.01882,-0.056 -0.09965,-0.073 -0.126269,-0.1263 -0.05952,-0.119 -0.07684,-0.2552 -0.126269,-0.3788 -0.06991,-0.1748 -0.168359,-0.3367 -0.252538,-0.5051 -0.04209,-0.084 -0.07406,-0.1742 -0.126269,-0.2525 -0.07663,-0.1149 -0.322849,-0.2669 -0.378807,-0.3788 -0.05952,-0.1191 -0.07684,-0.2552 -0.126269,-0.3788 -0.17417,-0.4354 -0.112944,-0.073 -0.252538,-0.6314 -0.02042,-0.082 0.03765,-0.1772 0,-0.2525 -0.02662,-0.053 -0.09965,-0.073 -0.126269,-0.1263 -0.05952,-0.119 -0.07684,-0.2552 -0.12627,-0.3788 -0.03495,-0.087 -0.08418,-0.1683 -0.126269,-0.2525 -0.04209,-0.084 -0.07406,-0.1742 -0.126269,-0.2526 -0.03302,-0.05 -0.08418,-0.084 -0.126269,-0.1262 -0.04209,-0.084 -0.07406,-0.1742 -0.126269,-0.2526 -0.03302,-0.05 -0.09325,-0.077 -0.126269,-0.1262 -0.425258,-0.6379 -9.75e-4,0 -0.126269,-0.3788 -0.03716,-0.1115 -0.312196,-0.6577 -0.378807,-0.7576 -0.03302,-0.05 -0.09965,-0.073 -0.126269,-0.1263 -0.01882,-0.038 0.01331,-0.086 0,-0.1263 -0.152588,-0.4577 -0.05991,-0.09 -0.252538,-0.3788 -0.104412,-0.1566 -0.148127,-0.3485 -0.252538,-0.5051 -0.03302,-0.05 -0.08418,-0.084 -0.12627,-0.1262 -0.126269,-0.1263 -0.252538,-0.2526 -0.378807,-0.3788 -0.04209,-0.042 -0.09965,-0.073 -0.126269,-0.1263 -0.01882,-0.038 0.01331,-0.086 0,-0.1263 -0.02976,-0.089 -0.08418,-0.1683 -0.126269,-0.2525 -0.04209,-0.084 -0.07406,-0.1743 -0.126269,-0.2526 -0.03302,-0.05 -0.09325,-0.077 -0.126269,-0.1262 -0.05221,-0.078 -0.07406,-0.1743 -0.126269,-0.2526 -0.03302,-0.05 -0.09325,-0.077 -0.126269,-0.1262 -0.05221,-0.078 -0.07406,-0.1743 -0.126269,-0.2526 -0.09713,-0.1457 -0.281677,-0.2331 -0.378807,-0.3788 -0.05221,-0.078 -0.07406,-0.1742 -0.126269,-0.2525 -0.09713,-0.1457 -0.281678,-0.2331 -0.378808,-0.3788 -0.104411,-0.1566 -0.148126,-0.3485 -0.252538,-0.5051 -0.03302,-0.05 -0.09325,-0.077 -0.126269,-0.1263 -0.05221,-0.078 -0.07406,-0.1742 -0.126269,-0.2525 -0.06604,-0.099 -0.199298,-0.1461 -0.252538,-0.2526 -0.01882,-0.038 0,-0.084 0,-0.1262 0,-0.188 0.01882,-0.1612 -0.126269,-0.3788 -0.03302,-0.05 -0.08418,-0.084 -0.126269,-0.1263 -0.144471,-0.1445 -0.176094,-0.1495 -0.252538,-0.3788 -0.03788,-0.1136 0.03788,-0.2652 0,-0.3788 -0.07644,-0.2293 -0.108068,-0.2343 -0.252539,-0.3788 -0.04209,-0.042 -0.09965,-0.073 -0.126269,-0.1263 -0.01882,-0.038 0.01331,-0.086 0,-0.1263 -0.152587,-0.4577 -0.05991,-0.09 -0.252538,-0.3788 -0.05221,-0.078 -0.07406,-0.1742 -0.126269,-0.2525 -0.03302,-0.049 -0.09325,-0.077 -0.126269,-0.1263 -0.278191,-0.064 -0.06674,-0.2597 -0.126269,-0.3788 -0.06787,-0.1357 -0.17446,-0.2487 -0.252538,-0.3788 -0.04842,-0.081 -0.07406,-0.1742 -0.126269,-0.2525 -0.07663,-0.115 -0.322849,-0.2669 -0.378807,-0.3788 -0.01882,-0.038 0.01331,-0.086 0,-0.1263 -0.03716,-0.1115 -0.312196,-0.6577 -0.378808,-0.7576 -0.03456,-0.052 -0.378807,-0.353 -0.378807,-0.3788 0,-0.06 0.09965,-0.073 0.126269,-0.1263 0.01882,-0.038 -0.01882,-0.089 0,-0.1263 0.02662,-0.053 0.08418,-0.084 0.126269,-0.1262 0.04209,-0.042 0.08418,-0.084 0.126269,-0.1263 0.168359,-0.1684 0.336718,-0.3367 0.505077,-0.5051 0.06648,-0.066 0.345088,-0.3113 0.378807,-0.3788 0.03765,-0.075 -0.03765,-0.1772 0,-0.2525 0.02662,-0.053 0.09965,-0.073 0.126269,-0.1263 0.02283,-0.046 0,-0.5435 0,-0.6313 0,-0.057 -0.01921,-0.3404 0,-0.3788 0.03372,-0.067 0.312331,-0.3124 0.378807,-0.3788 0.06648,-0.066 0.311369,-0.3451 0.378807,-0.3789 0.03765,-0.019 0.08862,0.019 0.126269,0 0.579029,-0.2895 -0.431142,0 -0.126269,0 0.290185,0 0.349579,-0.097 0.505077,-0.2525 0.04209,-0.042 0.07303,-0.1 0.126269,-0.1263 0.03765,-0.019 0.126269,-0.042 0.126269,0 0,0.042 -0.168359,0 -0.126269,0 0.08418,0 0.168359,0 0.252538,0 0.04209,0 0.126269,-0.042 0.126269,0 0,0.042 -0.168359,0 -0.126269,0 0.210448,0 0.420897,0 0.631345,0 z"
         style="fill:#ffffff;fill-rule:evenodd;stroke:#000000;stroke-width:1px;stroke-linecap:butt;stroke-linejoin:miter;stroke-opacity:1" />
      <path
         inkscape:connector-curvature="0"
         id="path4288"
         d="m -34.713555,1054.0219 c -2.08755,-0.506 -3.66811,-2.2692 -3.9276,-4.3814 -0.0579,-0.4714 -0.16729,-1.0785 -0.24302,-1.3489 -0.0921,-0.3288 -2.17713,-3.5501 -6.29439,-9.7244 -3.63212,-5.4469 -6.32944,-9.6009 -6.57799,-10.1305 -0.81411,-1.7347 -1.13052,-3.7225 -0.80945,-5.0854 0.24839,-1.0543 0.65324,-1.7796 1.42308,-2.5495 1.55976,-1.5597 3.57461,-1.9438 5.97629,-1.1392 1.75382,0.5876 2.25782,0.9471 4.65966,3.3236 l 1.77553,1.7567 0.002,-10.8704 c 0.002,-11.7668 -0.007,-11.5868 0.59267,-12.7694 0.37012,-0.7304 1.22714,-1.63336 1.98016,-2.08634 1.05339,-0.63366 1.74681,-0.75438 4.36376,-0.75973 2.51078,-0.005 3.22937,0.0978 4.23297,0.60638 0.72952,0.36968 1.83054,1.47069 2.20021,2.20019 0.57189,1.1286 0.61093,1.5462 0.61268,6.5548 l 0.002,4.6164 1.07772,0 c 1.34684,0 2.06197,0.1332 2.95313,0.5503 0.86573,0.4051 2.02567,1.5491 2.40704,2.374 l 0.26451,0.5721 1.22294,0 c 1.49136,0 2.18611,0.1234 3.09835,0.5503 0.86573,0.4051 2.02567,1.5491 2.40703,2.374 l 0.26452,0.5721 1.2229397,0 c 1.55246,0 2.20731,0.1238 3.18067,0.6011 0.89035,0.4367 1.83779,1.3696 2.28297,2.2482 0.60371,1.1913 0.6094,1.29 0.56788,9.8625 -0.0378,7.8127 -0.0404,7.8922 -0.28647,8.7584 -0.43474,1.5306 -1.00171,2.5279 -3.92823,6.9096 -3.1845497,4.768 -3.4129997,5.0296 -5.0984797,5.8379 -1.58256,0.7589 -1.33782,0.7435 -11.69115,0.7355 -7.53119,-0.01 -9.40569,-0.036 -9.91315,-0.1589 z m 20.01664,-3.6414 c 0.26858,-0.1432 0.63205,-0.3644 0.80771,-0.4917 0.4472,-0.324 5.8790897,-8.4984 6.1779197,-9.2971 0.13123,-0.3508 0.28685,-0.8637 0.3458,-1.1399 0.0659,-0.3089 0.0957,-3.4114 0.0772,-8.0607 -0.0295,-7.4399 -0.0336,-7.5632 -0.25529,-7.8602 -0.48863,-0.6543 -0.73183,-0.7492 -2.02224,-0.7892 l -1.1942697,-0.037 0,2.7727 c 0,2.6581 -0.0102,2.7929 -0.24585,3.2603 -0.59693,1.1837 -2.16624,1.2755 -2.95292,0.1726 -0.23829,-0.3341 -0.24408,-0.4208 -0.29765,-4.4576 -0.0523,-3.9426 -0.0642,-4.1297 -0.27991,-4.4184 -0.48884,-0.6542 -0.73193,-0.7491 -2.02224,-0.789 l -1.19427,-0.037 -0.002,2.7685 c -0.002,2.4936 -0.0232,2.8145 -0.21217,3.2307 -0.52644,1.1597 -2.13775,1.3106 -2.92862,0.2744 l -0.29859,-0.3913 -0.0546,-4.1256 c -0.0523,-3.9514 -0.0641,-4.1384 -0.27991,-4.4272 -0.48885,-0.6542 -0.73193,-0.749 -2.02224,-0.789 l -1.19427,-0.037 -0.002,2.7686 c -0.002,2.4936 -0.0232,2.8144 -0.21217,3.2306 -0.52649,1.1598 -2.13794,1.3107 -2.92862,0.2743 l -0.29859,-0.3914 -0.0546,-9.37 c -0.0539,-9.2501 -0.0575,-9.3738 -0.27991,-9.6716 -0.55607,-0.7446 -0.58855,-0.7522 -3.21651,-0.7522 -2.62799,0 -2.66049,0.01 -3.21651,0.7523 -0.22424,0.3003 -0.22553,0.3691 -0.27991,14.853 -0.0516,13.7426 -0.0656,14.5713 -0.25115,14.9113 -0.57665,1.0561 -2.14107,1.1417 -2.89204,0.1582 -0.27721,-0.3631 -0.30107,-0.4778 -0.33309,-1.6019 l -0.0345,-1.2108 -2.86098,-2.8728 c -1.57353,-1.5801 -3.10947,-3.0391 -3.41319,-3.2423 -2.46387,-1.648 -4.65029,-0.6496 -4.10863,1.876 0.27953,1.3035 0.63233,1.8812 6.7967,11.1296 3.40991,5.1158 6.27359,9.4443 6.36374,9.6188 0.29372,0.5684 0.61205,1.6729 0.68259,2.3682 0.038,0.3743 0.11519,0.8323 0.17158,1.0177 0.11641,0.3826 0.56676,0.8539 0.9716,1.0167 0.17715,0.071 3.55662,0.1023 9.61515,0.088 l 9.34199,-0.022 0.48833,-0.2602 z"
         style="fill:#000000" />
    </g>
    <rect
       style="opacity:1;fill:#333333;fill-opacity:1;stroke:#000000;stroke-width:0.74517775;stroke-linejoin:round;stroke-miterlimit:4;stroke-dasharray:none;stroke-dashoffset:0;stroke-opacity:1"
       id="rect4310"
       width="214.54779"
       height="14.007101"
       x="16.171722"
       y="1128.5209"
       ry="2.562258" />
    <flowRoot
       xml:space="preserve"
       id="flowRoot4302"
       style="font-style:normal;font-weight:normal;font-size:12.7332859px;line-height:125%;font-family:sans-serif;letter-spacing:0px;word-spacing:0px;fill:#ffffff;fill-opacity:1;stroke:none;stroke-width:1px;stroke-linecap:butt;stroke-linejoin:miter;stroke-opacity:1"
       transform="matrix(0.87573661,0,0,0.87573661,-31.383366,265.19293)"><flowRegion
         id="flowRegion4304"><rect
           id="rect4306"
           width="296.48199"
           height="20.09775"
           x="56.889336"
           y="986.36401"
           style="fill:#ffffff" /></flowRegion><flowPara
         id="flowPara4308"
         style="font-size:10.92317581px;fill:#ffffff">https://fr.wikipedia.org/wiki/Trois_Glorieuses</flowPara></flowRoot>    <path
       style="fill:none;fill-rule:evenodd;stroke:#000000;stroke-width:1.70000005;stroke-linecap:butt;stroke-linejoin:miter;stroke-miterlimit:4;stroke-dasharray:none;stroke-opacity:1"
       d="m 265.24685,1110.1385 -58.92857,0 0,0.3571 0,13.9286 1.92702,-1.927 -3.95135,0 1.62299,1.623 0.27105,0 0,-0.019"
       id="path4312"
       inkscape:connector-curvature="0" />
  </g>
</svg>
